…
``` r
lat_lon_data
```

    ## # A tibble: 16,080 × 7
    ##    postcode                         suburb state
    ##       <int>                          <chr> <chr>
    ## 1       200 AUSTRALIAN NATIONAL UNIVERSITY   ACT
    ## 2       221                         BARTON   ACT
    ## 3       800                         DARWIN    NT
    ## 4       801                         DARWIN    NT
    ## 5       804                          PARAP    NT
    ## 6       810                          ALAWA    NT
    ## 7       810                        BRINKIN    NT
    ## 8       810                      CASUARINA    NT
    ## 9       810                        JINGILI    NT
    ## 10      810                      LEE POINT    NT
    ## # ... with 16,070 more rows, and 4 more variables: dc <chr>, type <chr>,
    ## #   lat <dbl>, lon <dbl>
…
